0x8b42,0x908a
 0x8b42, 0x908a
 0x8b42, 0x9089
 0x8b42, 0x9089
 0x8b42, 0x9089
 0x8b42, 0x9089
 0x8b42, 0x9089
 0x8b42, 0x9089
 0x8b42, 0x9089
 0x8b42, 0x9089
 0x8b42, 0x9089
 0x8b43, 0x9089
 0x8b43, 0x9089
 0x8b43, 0x9089
 0x8b43, 0x9089
 0x8b43, 0x9089
 0x8b43, 0x9089
 0x8b43, 0x9089
 0x8b43, 0x9089
 0x8b44, 0x9089
 0x8b44, 0x9089
 0x8b44, 0x9089
 0x8b44, 0x9089
 0x8b44, 0x9089
 0x8b44, 0x9089
 0x8b44, 0x9089
 0x8b44, 0x9089
 0x8b44, 0x9089
 0x8b45, 0x9089
 0x8b45, 0x9089
 0x8b45, 0x9089
 0x8b45, 0x9089
 0x8b45, 0x9089
 0x8b45, 0x9089
 0x8b45, 0x9089
 0x8b45, 0x9089
 0x8b45, 0x9089
 0x8b46, 0x9089
 0x8b46, 0x9089
 0x8b46, 0x9089
 0x8b46, 0x9089
 0x8b46, 0x9089
 0x8b46, 0x9089
 0x8b46, 0x9089
 0x8b46, 0x9089
 0x8b46, 0x9089
 0x8b47, 0x9089
 0x8b47, 0x9089
 0x8b47, 0x9089
 0x8b47, 0x9089
 0x0, 0x0
 0xfff8, 0xdbff
 0xfff8, 0xdc05
 0xfff8, 0xdc0a
 0xfff8, 0xdc10
 0xfff8, 0xdc16
 0xfff8, 0xdc1b
 0xfff8, 0xdc21
 0xfff8, 0xdc26
 0xfff8, 0xdc2c
 0xfff8, 0xdc32
 0xfff8, 0xdc37
 0xfff8, 0xdc3d
 0xfff8, 0xdc43
 0xfff8, 0xdc48
 0xfff8, 0xdc4e
 0xfff8, 0xdc54
 0xfff8, 0xdc59
 0xfff8, 0xdc5f
 0xfff8, 0xdc65
 0xfff8, 0xdc6a
 0xfff8, 0xdc70
 0xfff8, 0xdc76
 0xfff8, 0xdc7b
 0xfff8, 0xdc81
 0xfff8, 0xdc87
 0xfff8, 0xdc8c
 0xfff8, 0xdc92
 0xfff8, 0xdc98
 0xfff8, 0xdc9d
 0xfff8, 0xdca3
 0xfff8, 0xdca9
 0xfff8, 0xdcae
 0xfff8, 0xdcb4
 0xfff8, 0xdcb9
 0xfff8, 0xdcbf
 0xfff8, 0xdcc5
 0xfff8, 0xdcca
 0xfff8, 0xdcd0
 0xfff8, 0xdcd6
 0xfff8, 0xdcdb
 0xfff8, 0xdce1
 0xfff8, 0xdce7
 0xfff8, 0xdcec
 0xfff8, 0xdcf2
 0xfff8, 0xdcf8
 0xfff8, 0xdcfd
 0xfff8, 0xdd03
 0xfff8, 0xdd09
 0xfff8, 0xdd0e
 0xfff8, 0xdd14
 0xfff8, 0xdd1a
 0xfff8, 0xdd1f
 0xfff8, 0xdd25
 0xfff8, 0xdd2b
 0xfff8, 0xdd30
 0xfff8, 0xdd36
 0xfff8, 0xdd3c
 0xfff8, 0xdd41
 0xfff8, 0xdd47
 0xfff8, 0xdd4c
 0xfff8, 0xdd52
 0xfff8, 0xdd58
 0xfff8, 0xdd5d
 0xfff8, 0xdd63
 0xfff8, 0xdd69
 0xfff8, 0xdd6e
 0xfff8, 0xdd74
 0xfff8, 0xdd7a
 0xfff8, 0xdd7f
 0xfff8, 0xdd85
 0xfff8, 0xdd8b
 0xfff8, 0xdd90
 0xfff8, 0xdd96
 0xfff8, 0xdd9c
 0xfff8, 0xdda1
 0xfff8, 0xdda7
 0xfff8, 0xddad
 0xfff8, 0xddb2
 0xfff8, 0xddb8
 0xfff8, 0xddbe
 0xfff8, 0xddc3
 0xfff8, 0xddc9
 0xfff8, 0xddcf
 0xfff8, 0xddd4
 0xfff8, 0xddda
 0xfff8, 0xdddf
 0xfff8, 0xdde5
 0xfff8, 0xddeb
 0xfff8, 0xddf0
 0xfff8, 0xddf6
 0xfff8, 0xddfc
 0xfff8, 0xde01
 0xfff8, 0xde07
 0xfff8, 0xde0d
 0xfff8, 0xde12
 0xfff8, 0xde18
 0xfff8, 0xde1e
 0xfff8, 0xde23
 0xfff8, 0xde29
 0xfff8, 0xde2f
 0xfff8, 0xde34
 0xfff8, 0xde3a
 0xfff8, 0xde40
 0xfff8, 0xde45
 0xfff8, 0xde4b
 0xfff8, 0xde51
 0xfff8, 0xde56
 0xfff8, 0xde5c
 0xfff8, 0xde62
 0xfff8, 0xde67
 0xfff8, 0xde6d
 0xfff8, 0xde72
 0xfff8, 0xde78
 0xfff8, 0xde7e
 0xfff8, 0xde83
 0xfff8, 0xde89
 0xfff8, 0xde8f
 0xfff8, 0xde94
 0xfff8, 0xde9a
 0xfff8, 0xdea0
 0xfff8, 0xdea5
 0xfff8, 0xdeab
 0xfff8, 0xdeb1
 0xfff8, 0xdeb6
 0xfff8, 0xdebc
 0xfff8, 0xdec2
 0xfff8, 0xdec7
 0xfff8, 0xdecd
 0xfff8, 0xded3
 0xfff8, 0xded8
 0xfff8, 0xdede
 0xfff8, 0xdee4
 0xfff8, 0xdee9
 0xfff8, 0xdeef
 0xfff8, 0xdef4
 0xfff8, 0xdefa
 0xfff8, 0xdf00
 0xfff8, 0xdf05
 0xfff8, 0xdf0b
 0xfff8, 0xdf11
 0xfff8, 0xdf16
 0xfff8, 0xdf1c
 0xfff8, 0xdf22
 0xfff8, 0xdf27
0xfff7,0xdf26
0xfff7,0xdf26
0xfff7,0xdf26
0xfff7,0xdf26
0xfff7,0xdf26
